C:\Users\TayaneMe\Desktop\WorkspaceForVHV\de.vhv.cucumber\src\test\java\step2\StepTest.java
C:\Users\TayaneMe\Desktop\WorkspaceForVHV\de.vhv.cucumber\src\test\java\runner\RunCuke.java
C:\Users\TayaneMe\Desktop\WorkspaceForVHV\de.vhv.cucumber\src\test\java\steps\LoginStep.java
C:\Users\TayaneMe\Desktop\WorkspaceForVHV\de.vhv.cucumber\src\test\java\de\vhv\cucumber\StepDefinition.java
C:\Users\TayaneMe\Desktop\WorkspaceForVHV\de.vhv.cucumber\src\test\java\runner\RunCuke2.java
